{
  "project_info": {
    "project_number": "313688624330",
    "firebase_url": "https://digi-wallet-97987.firebaseio.com",
    "project_id": "digi-wallet-97987",
    "storage_bucket": "digi-wallet-97987.appspot.com"
  },
  "client": [
    {
      "client_info": {
        "mobilesdk_app_id": "1:313688624330:android:b7db0f0f2e94af3d",
        "android_client_info": {
          "package_name": "com.digiwallet"
        }
      },
      "oauth_client": [
        {
          "client_id": "313688624330-fg6kefl4sn7vu595dlb2d8h88fihviss.apps.googleusercontent.com",
          "client_type": 3
        }
      ],
      "api_key": [
        {
          "current_key": "AIzaSyDPxDfueOwB-OhaHZWkJ8ir-PHvxHOBz-s"
        }
      ],
      "services": {
        "appinvite_service": {
          "other_platform_oauth_client": [
            {
              "client_id": "313688624330-mftn7d7u5657qok7cc6kgak3ch2nijgt.apps.googleusercontent.com",
              "client_type": 3
            },
            {
              "client_id": "313688624330-b5kirc67i7mb2j7fitv0p903pjgpsica.apps.googleusercontent.com",
              "client_type": 2,
              "ios_info": {
                "bundle_id": "com.digify.digilife"
              }
            }
          ]
        }
      }
    },
    {
      "client_info": {
        "mobilesdk_app_id": "1:313688624330:android:a7d3724208329fe8",
        "android_client_info": {
          "package_name": "com.e.digilife"
        }
      },
      "oauth_client": [
        {
          "client_id": "313688624330-1q87t4aoom8oiinvsrv7q2k8676a3nbq.apps.googleusercontent.com",
          "client_type": 1,
          "android_info": {
            "package_name": "com.e.digilife",
            "certificate_hash": "28f1a363fc36c3fe05954d0fc154f4f56f2c7a3d"
          }
        },
        {
          "client_id": "313688624330-fg6kefl4sn7vu595dlb2d8h88fihviss.apps.googleusercontent.com",
          "client_type": 3
        }
      ],
      "api_key": [
        {
          "current_key": "AIzaSyDPxDfueOwB-OhaHZWkJ8ir-PHvxHOBz-s"
        }
      ],
      "services": {
        "appinvite_service": {
          "other_platform_oauth_client": [
            {
              "client_id": "313688624330-mftn7d7u5657qok7cc6kgak3ch2nijgt.apps.googleusercontent.com",
              "client_type": 3
            },
            {
              "client_id": "313688624330-b5kirc67i7mb2j7fitv0p903pjgpsica.apps.googleusercontent.com",
              "client_type": 2,
              "ios_info": {
                "bundle_id": "com.digify.digilife"
              }
            }
          ]
        }
      }
    }
  ],
  "configuration_version": "1"
}